%YAML 1.1
%TAG !u! tag:unity3d.com,2011:
--- !u!687078895 &4343727234628468602
SpriteAtlas:
  m_ObjectHideFlags: 0
  m_CorrespondingSourceObject: {fileID: 0}
  m_PrefabInstance: {fileID: 0}
  m_PrefabAsset: {fileID: 0}
  m_Name: Items
  m_EditorData:
    serializedVersion: 2
    textureSettings:
      serializedVersion: 2
      anisoLevel: 1
      compressionQuality: 50
      maxTextureSize: 2048
      textureCompression: 0
      filterMode: 1
      generateMipMaps: 0
      readable: 0
      crunchedCompression: 0
      sRGB: 1
    platformSettings:
    - serializedVersion: 3
      m_BuildTarget: DefaultTexturePlatform
      m_MaxTextureSize: 512
      m_ResizeAlgorithm: 0
      m_TextureFormat: -1
      m_TextureCompression: 0
      m_CompressionQuality: 50
      m_CrunchedCompression: 0
      m_AllowsAlphaSplitting: 0
      m_Overridden: 0
      m_AndroidETC2FallbackOverride: 0
      m_ForceMaximumCompressionQuality_BC6H_BC7: 1
    packingSettings:
      serializedVersion: 2
      padding: 4
      blockOffset: 1
      allowAlphaSplitting: 0
      enableRotation: 1
      enableTightPacking: 0
    variantMultiplier: 1
    packables:
    - {fileID: 102900000, guid: 1fbb4793d0ca943c6a89dd35d122f42f, type: 3}
    - {fileID: 102900000, guid: 960bea7bdcd064b1bb4340e9a2c05705, type: 3}
    totalSpriteSurfaceArea: 2380757
    bindAsDefault: 1
  m_MasterAtlas: {fileID: 0}
  m_PackedSprites:
  - {fileID: 21300000, guid: 18a9b100be0e7f54e94ccc17d23d9e64, type: 3}
  - {fileID: 21300000, guid: 0edf19301af4941ef8ab05726d03f78d, type: 3}
  - {fileID: 21300000, guid: 13093650104e244a5a2f80f6eaf02cd6, type: 3}
  - {fileID: 21300000, guid: 14db676025577491190af647906a962a, type: 3}
  - {fileID: 21300000, guid: 16b3add0a1b96472aaa865d7a48d507f, type: 3}
  - {fileID: 21300000, guid: 3ea64ff047ff6d144bb32b757bdfe790, type: 3}
  - {fileID: 21300000, guid: 0687c131a807044db9027e03ac01e977, type: 3}
  - {fileID: 21300000, guid: f57722712dea04612ad9fcfa3bb1f840, type: 3}
  - {fileID: 21300000, guid: 71f7157132f6d41b8843bcaf0f199bf9, type: 3}
  - {fileID: 21300000, guid: ac4c6281ca9998c44a618a6570ad0a9f, type: 3}
  - {fileID: 21300000, guid: 37f6b4815822f472dbb6e1121d3ef560, type: 3}
  - {fileID: 21300000, guid: ed64c2a11ff36488d9cd29084bae6926, type: 3}
  - {fileID: 21300000, guid: cb205e42864ca4a7493eb517454f965f, type: 3}
  - {fileID: 21300000, guid: 2ce0ba72f69364c9a946130c767464d4, type: 3}
  - {fileID: 21300000, guid: 0f9770a23cda149a98876ec06ccb224c, type: 3}
  - {fileID: 21300000, guid: 1ab674f2b9d62438486e181520acc4e4, type: 3}
  - {fileID: 21300000, guid: b579f2532165c4d38afda6332b8af6cb, type: 3}
  - {fileID: 21300000, guid: 8bff9453e483b4a6ea2bc4713ce58542, type: 3}
  - {fileID: 21300000, guid: 785653637a49447bd92900c47e139a3c, type: 3}
  - {fileID: 21300000, guid: b15b24a33f69c4710a9a9093e5312bab, type: 3}
  - {fileID: 21300000, guid: 76484204c1ee945419d016f44240797b, type: 3}
  - {fileID: 21300000, guid: 71cd88344a75f44189cb83c90d740fa0, type: 3}
  - {fileID: 21300000, guid: d202af447c8114456aefdcc9248699cb, type: 3}
  - {fileID: 21300000, guid: 184e1f54b83be4d56bd5262c7c2395ff, type: 3}
  - {fileID: 21300000, guid: 3dda22942cfed4603a1e236fa67c317c, type: 3}
  - {fileID: 21300000, guid: 4f051315ae7a845f89e117c94f9c72dc, type: 3}
  - {fileID: 21300000, guid: 25a7df250b1834167834d8eac6107271, type: 3}
  - {fileID: 21300000, guid: f60c9246e002f6749a5f5678fa57db99, type: 3}
  - {fileID: 21300000, guid: a314b4660208bef419ebbb37bb128fd9, type: 3}
  - {fileID: 21300000, guid: a0421d664afd54676a4bf01c8eefd198, type: 3}
  - {fileID: 21300000, guid: 62029496637fcc34895260635cbcf41d, type: 3}
  - {fileID: 21300000, guid: 33773bc7a218749309b74aa85f7ce185, type: 3}
  - {fileID: 21300000, guid: faed6bf7fb1044a6aaee6aa60652bd5b, type: 3}
  - {fileID: 21300000, guid: 193adf08b4b954b25bf2a5132abb256e, type: 3}
  - {fileID: 21300000, guid: d5d12238ac86e4a1aad2ad7b08a654ea, type: 3}
  - {fileID: 21300000, guid: 5ebce438bf0e649b880f6dee88522175, type: 3}
  - {fileID: 21300000, guid: ecb63978a2bb3412889e0abe385f7d7d, type: 3}
  - {fileID: 21300000, guid: 9110f888b11cad04a8bf87aa9ed3a5c1, type: 3}
  - {fileID: 21300000, guid: bee78798515184a738b36415600c08ee, type: 3}
  - {fileID: 21300000, guid: df7ade69ab1c5ed4a80551ca6a914a1e, type: 3}
  - {fileID: 21300000, guid: c56be2795f28446b5a664ee849dee918, type: 3}
  - {fileID: 21300000, guid: 602077c9fcbeb4dbcb982cf680370405, type: 3}
  - {fileID: 21300000, guid: 6e2aeb1a957644443a91a3a29b9bef43, type: 3}
  - {fileID: 21300000, guid: 8604122af3f62472e95c261ef7b15478, type: 3}
  - {fileID: 21300000, guid: b7af2f2a1bfd34165a8bbc3151675e61, type: 3}
  - {fileID: 21300000, guid: 00609a7a5bb9f4a9b89633edcfd97d78, type: 3}
  - {fileID: 21300000, guid: f89ff6aa2ed834bd8a4e2bb4d6117e1d, type: 3}
  - {fileID: 21300000, guid: 75e1333bf7939d24bb365ffb2c576735, type: 3}
  - {fileID: 21300000, guid: 29dc898b251c345b683dcd0f2e644084, type: 3}
  - {fileID: 21300000, guid: 5633899bf840d384a90523c98e7b186d, type: 3}
  - {fileID: 21300000, guid: b8cc82eb87b3d4696b8d1c904048a751, type: 3}
  - {fileID: 21300000, guid: 54573e1c0a96249888ff503b02f189cb, type: 3}
  - {fileID: 21300000, guid: 591d5d9cd95f84211b9341eeb282a8e8, type: 3}
  - {fileID: 21300000, guid: e49512fc52654fe4dbe0da93aaa153e6, type: 3}
  - {fileID: 21300000, guid: a0ddc91d7259f47e2808cc4f78d7428e, type: 3}
  - {fileID: 21300000, guid: e018d53dd700c47d1b4e5962299a2868, type: 3}
  - {fileID: 21300000, guid: a8c0ef4dbdae7495a874bdd1c22d0afc, type: 3}
  - {fileID: 21300000, guid: ff22b17d043794cce91292f209a8076b, type: 3}
  - {fileID: 21300000, guid: af91757d0111c4be795859b8deedcfc7, type: 3}
  - {fileID: 21300000, guid: 1232f9fd124c9448c99813f3ade688bf, type: 3}
  - {fileID: 21300000, guid: 6fcac71e60c28fe48ac9d5825e69c49d, type: 3}
  - {fileID: 21300000, guid: 01954c4ea2b65488091af7570dad18f0, type: 3}
  - {fileID: 21300000, guid: f2e413beda77d234bb4f7290135fce06, type: 3}
  - {fileID: 21300000, guid: 37ae4fde7591847e4a078c72e64c27c5, type: 3}
  - {fileID: 21300000, guid: 007ac4fe437ad4ce2b163a6f1713b0b1, type: 3}
  - {fileID: 21300000, guid: e3932d0f07fcb49a89f5e7d89b16d1ee, type: 3}
  - {fileID: 21300000, guid: 6eb7781fa2b45424f8321d8348b6f59f, type: 3}
  - {fileID: 21300000, guid: 8f58ea5f63ea34647b2750b9160c85a3, type: 3}
  - {fileID: 21300000, guid: 80ad3bcfbfb8c4820888f9d27839f4c7, type: 3}
  m_PackedSpriteNamesToIndex:
  - boom_13
  - item_03
  - item_01_stripes_vert
  - bomb_items_06
  - circle_particle_2
  - boom_17
  - game_item_c_1
  - item_mar_06
  - teleport_01
  - boom_09
  - item_02_stripes_horiz
  - item_04_stripes_vert
  - item_mar_04
  - bomb_items_01
  - item_05
  - border
  - ingredient_02
  - item_06_stripes_horiz
  - item_05_stripes_vert
  - teleport_00
  - item_02_stripes_vert
  - bomb_items_05
  - bomb-count-lable
  - item_04
  - item_01
  - snow_particle
  - item_mar_02
  - boom_14
  - boom_07
  - obstacle-bar
  - boom_08
  - item_05_stripes_horiz
  - game_item_b
  - game_item_g
  - item_01_stripes_horiz
  - circle_particle
  - item_04_stripes_horiz
  - boom_11
  - item_spot_01
  - boom_15
  - bomb_items_03
  - item_mar_03
  - game_item_f
  - item_02
  - item_mar_01
  - item_06
  - bomb_items_04
  - boom_06
  - bomb_items_02
  - boom_16
  - game_item_a_2
  - game_item_k
  - item_spot_02
  - boom_12
  - plus-5-text
  - item_mar_05
  - game_item_e
  - ingredient_01
  - teleport_02
  - game_item_d
  - boom_05
  - game_item_h
  - boom_10
  - game_item_a_1
  - item_06_stripes_vert
  - item_03_stripes_horiz
  - game_item_c_3
  - game_item_c_2
  - item_03_stripes_vert
  m_Tag: Items
  m_IsVariant: 0
