%YAML 1.1
%TAG !u! tag:unity3d.com,2011:
--- !u!687078895 &4343727234628468602
SpriteAtlas:
  m_ObjectHideFlags: 0
  m_CorrespondingSourceObject: {fileID: 0}
  m_PrefabInstance: {fileID: 0}
  m_PrefabAsset: {fileID: 0}
  m_Name: Level 1
  m_EditorData:
    serializedVersion: 2
    textureSettings:
      serializedVersion: 2
      anisoLevel: 1
      compressionQuality: 50
      maxTextureSize: 2048
      textureCompression: 0
      filterMode: 1
      generateMipMaps: 0
      readable: 0
      crunchedCompression: 0
      sRGB: 1
    platformSettings:
    - serializedVersion: 3
      m_BuildTarget: DefaultTexturePlatform
      m_MaxTextureSize: 512
      m_ResizeAlgorithm: 0
      m_TextureFormat: -1
      m_TextureCompression: 0
      m_CompressionQuality: 50
      m_CrunchedCompression: 0
      m_AllowsAlphaSplitting: 0
      m_Overridden: 0
      m_AndroidETC2FallbackOverride: 0
      m_ForceMaximumCompressionQuality_BC6H_BC7: 1
    packingSettings:
      serializedVersion: 2
      padding: 4
      blockOffset: 1
      allowAlphaSplitting: 0
      enableRotation: 1
      enableTightPacking: 0
    variantMultiplier: 1
    packables:
    - {fileID: 102900000, guid: dab789ecf2ed647019172e7f0c6634c8, type: 3}
    - {fileID: 2800000, guid: ddc70cb02de6e4acfa7bd1ee9a20cad2, type: 3}
    - {fileID: 2800000, guid: 22f2e8a3f7cde4252b863e32f7514c73, type: 3}
    - {fileID: 2800000, guid: c96cea2d8231d42e58bee63cd62b0b05, type: 3}
    - {fileID: 102900000, guid: e1ee87c3cf7f24038876d2a37ecd510a, type: 3}
    - {fileID: 102900000, guid: ef9207d514f6947db96bdd79e172e20d, type: 3}
    - {fileID: 102900000, guid: 156e5bdac926f4b638c4e2a5f824b9f6, type: 3}
    - {fileID: 102900000, guid: 91b037be8ede34b43aa0fbee67a238ee, type: 3}
    - {fileID: 2800000, guid: d5ec597613d73415badf7fb05a44ce50, type: 3}
    totalSpriteSurfaceArea: 3648615
    bindAsDefault: 1
  m_MasterAtlas: {fileID: 0}
  m_PackedSprites:
  - {fileID: 21300000, guid: a522f400b7742406ea9b79f02b430cae, type: 3}
  - {fileID: 21300000, guid: 1def41307ec09402bbcda874f7dc557d, type: 3}
  - {fileID: 21300000, guid: efc89d4055b614c599197610a67ed3d3, type: 3}
  - {fileID: 21300000, guid: ddc70cb02de6e4acfa7bd1ee9a20cad2, type: 3}
  - {fileID: 21300000, guid: 13984e115092d5944973eaaf6c7e2cb6, type: 3}
  - {fileID: 21300000, guid: 4ca7907116890f74482c480eeea345d7, type: 3}
  - {fileID: 21300000, guid: 83b436029e41c4909ba40e2251803713, type: 3}
  - {fileID: 21300000, guid: 49dfa212e626344fcb96ee0ac5353a8d, type: 3}
  - {fileID: 21300000, guid: 8b8ffe522f2cb4ee89fa0490d35d4074, type: 3}
  - {fileID: 21300000, guid: 9cd4439215f4d42c2a5c31705ad5f035, type: 3}
  - {fileID: 21300000, guid: 22f2e8a3f7cde4252b863e32f7514c73, type: 3}
  - {fileID: 21300000, guid: 70a5109426a0e4b5591cf8e4ffe491f7, type: 3}
  - {fileID: 21300000, guid: 6bb897a48a8bd4fd99fd21552c755c56, type: 3}
  - {fileID: 21300000, guid: 526d18a41efcd47cbbe09731a0b746e1, type: 3}
  - {fileID: 21300000, guid: 5282532549d3341d98eb34c992062e66, type: 3}
  - {fileID: 21300000, guid: 5594c7a5c603947c5a44f56ab886c4af, type: 3}
  - {fileID: 21300000, guid: 520fe2d59915348538158ec2ccd9cf70, type: 3}
  - {fileID: 21300000, guid: d8019ce55bcd245da9cf62413dbdb023, type: 3}
  - {fileID: 21300000, guid: d1388426b35494a1c92be10b47420c09, type: 3}
  - {fileID: 21300000, guid: d5ec597613d73415badf7fb05a44ce50, type: 3}
  - {fileID: 21300000, guid: 1134842780b80ad499c3aa604144bdcd, type: 3}
  - {fileID: 21300000, guid: 42c88f570081d42b4b5a50939afff8e4, type: 3}
  - {fileID: 21300000, guid: 83bd3f87756f14f06b3655fba0d3060a, type: 3}
  - {fileID: 21300000, guid: 9d084ab78d6ea194eb208e20f78d5d51, type: 3}
  - {fileID: 21300000, guid: ccdc1a78b73f8478b866b4b0c9194acf, type: 3}
  - {fileID: 21300000, guid: f3dc5e88d2bc4440fa5a748dd53ed9c7, type: 3}
  - {fileID: 21300000, guid: ca5ad9b8030ad42838eeefb9c44f9145, type: 3}
  - {fileID: 21300000, guid: b9f4ac09c3cfb4c1faaeb86f085e74bf, type: 3}
  - {fileID: 21300000, guid: e7cc15ea37e834a5988fdddeedb4391d, type: 3}
  - {fileID: 21300000, guid: 2dbc952b9a909485d8e33f8def59b14b, type: 3}
  - {fileID: 21300000, guid: aae5cd6b506394bdd8d8feeedd7b1342, type: 3}
  - {fileID: 21300000, guid: 0ba8c0bbf73743b4f9c9bb707570327f, type: 3}
  - {fileID: 21300000, guid: 7619ba6ca91254f728e6a5fedb07a59b, type: 3}
  - {fileID: 21300000, guid: 7e7fec7c9d65746778286ffadafcd8d5, type: 3}
  - {fileID: 21300000, guid: c96cea2d8231d42e58bee63cd62b0b05, type: 3}
  - {fileID: 21300000, guid: a1c5254d23c7c42529b4178c719c9d63, type: 3}
  - {fileID: 21300000, guid: 314acb7d66f99429b81bb9d39f390d3f, type: 3}
  - {fileID: 21300000, guid: 55cfcdfd58d7a475386dea88be7980c4, type: 3}
  - {fileID: 21300000, guid: dc36934e10e864d15bfb7fdbb9e8e936, type: 3}
  - {fileID: 21300000, guid: 10a8954efb9727a418c3d0ce5e1bf639, type: 3}
  - {fileID: 21300000, guid: 3088689e65ee74551ab0fbbea83616b4, type: 3}
  - {fileID: 21300000, guid: 5e3705aebc9e643d1885e528e7f0506b, type: 3}
  - {fileID: 21300000, guid: 7c2fdfce15ff043a89557de2b75ac9b4, type: 3}
  - {fileID: 21300000, guid: 9a9e65af158174c93ba9a652c661ac1b, type: 3}
  - {fileID: 21300000, guid: 361bd4ff2c2dc453cb9e76b17e336e9f, type: 3}
  - {fileID: 21300000, guid: 8d0d3bff18fcb41b9b10c7488df63d03, type: 3}
  m_PackedSpriteNamesToIndex:
  - field_bar_02
  - star_2
  - booster_plus_5
  - booster_button
  - character_info_complete
  - character_info
  - booster_bomb_01
  - booster_destroy
  - character_main_hand
  - horiz_top_banner
  - booster_button_lock
  - ver_character_banner
  - field_bar_03
  - booster_30_plus_text
  - happy_face
  - ver_moves_bar
  - horiz_foot_banner
  - moves
  - complete_hand
  - FB_v
  - complete_hand-3
  - booster_move_items
  - horiz_moves_bar
  - hat
  - ver_foot_banner
  - character_main
  - sad_face
  - target_bar
  - star_1
  - character_hair
  - horiz_gui_element
  - tear
  - ver_top_banner
  - progress_bar_02
  - booster_number
  - booster_bomb_02
  - ingredient_down_arrow
  - no_match_text
  - progress_bar_01
  - sad_face2
  - booster_plus_30
  - booster_5_plus_text
  - field_bar_01
  - time_level_5_text
  - plus_booster_button
  - body
  m_Tag: Level 1
  m_IsVariant: 0
